{
    "fluentMethods": true,
    "relationships": [
        {
            "relationshipType": "many-to-one",
            "relationshipName": "user",
            "otherEntityName": "user",
            "otherEntityField": "login"
        },
        {
            "relationshipType": "many-to-one",
            "relationshipName": "location",
            "otherEntityName": "location",
            "otherEntityField": "region"
        },
        {
            "relationshipType": "many-to-many",
            "relationshipName": "appointment",
            "otherEntityName": "appointment",
            "ownerSide": false,
            "otherEntityRelationshipName": "profile"
        }
    ],
    "fields": [
        {
            "fieldName": "name",
            "fieldType": "String"
        },
        {
            "fieldName": "phNumber",
            "fieldType": "String"
        },
        {
            "fieldName": "picture",
            "fieldType": "byte[]",
            "fieldTypeBlobContent": "image"
        }
    ],
    "changelogDate": "20180418093536",
    "entityTableName": "profile",
    "dto": "no",
    "pagination": "no",
    "service": "no",
    "jpaMetamodelFiltering": false
}